%!PS-Adobe-3.0 EPSF-3.0
%%Creator: (MATLAB, The Mathworks, Inc. Version 9.7.0.1296695 \(R2019b\) Update 4. Operating System: Windows 10)
%%Title: ./tdse-nolabel.eps
%%CreationDate: 2020-05-27T11:05:23
%%Pages: (atend)
%%BoundingBox:    12     5   382   304
%%LanguageLevel: 3
%%EndComments
%%BeginProlog
%%BeginResource: procset (Apache XML Graphics Std ProcSet) 1.2 0
%%Version: 1.2 0
%%Copyright: (Copyright 2001-2003,2010 The Apache Software Foundation. License terms: http://www.apache.org/licenses/LICENSE-2.0)
/bd{bind def}bind def
/ld{load def}bd
/GR/grestore ld
/GS/gsave ld
/RM/rmoveto ld
/C/curveto ld
/t/show ld
/L/lineto ld
/ML/setmiterlimit ld
/CT/concat ld
/f/fill ld
/N/newpath ld
/S/stroke ld
/CC/setcmykcolor ld
/A/ashow ld
/cp/closepath ld
/RC/setrgbcolor ld
/LJ/setlinejoin ld
/GC/setgray ld
/LW/setlinewidth ld
/M/moveto ld
/re {4 2 roll M
1 index 0 rlineto
0 exch rlineto
neg 0 rlineto
cp } bd
/_ctm matrix def
/_tm matrix def
/BT { _ctm currentmatrix pop matrix _tm copy pop 0 0 moveto } bd
/ET { _ctm setmatrix } bd
/iTm { _ctm setmatrix _tm concat } bd
/Tm { _tm astore pop iTm 0 0 moveto } bd
/ux 0.0 def
/uy 0.0 def
/F {
  /Tp exch def
  /Tf exch def
  Tf findfont Tp scalefont setfont
  /cf Tf def  /cs Tp def
} bd
/ULS {currentpoint /uy exch def /ux exch def} bd
/ULE {
  /Tcx currentpoint pop def
  gsave
  newpath
  cf findfont cs scalefont dup
  /FontMatrix get 0 get /Ts exch def /FontInfo get dup
  /UnderlinePosition get Ts mul /To exch def
  /UnderlineThickness get Ts mul /Tt exch def
  ux uy To add moveto  Tcx uy To add lineto
  Tt setlinewidth stroke
  grestore
} bd
/OLE {
  /Tcx currentpoint pop def
  gsave
  newpath
  cf findfont cs scalefont dup
  /FontMatrix get 0 get /Ts exch def /FontInfo get dup
  /UnderlinePosition get Ts mul /To exch def
  /UnderlineThickness get Ts mul /Tt exch def
  ux uy To add cs add moveto Tcx uy To add cs add lineto
  Tt setlinewidth stroke
  grestore
} bd
/SOE {
  /Tcx currentpoint pop def
  gsave
  newpath
  cf findfont cs scalefont dup
  /FontMatrix get 0 get /Ts exch def /FontInfo get dup
  /UnderlinePosition get Ts mul /To exch def
  /UnderlineThickness get Ts mul /Tt exch def
  ux uy To add cs 10 mul 26 idiv add moveto Tcx uy To add cs 10 mul 26 idiv add lineto
  Tt setlinewidth stroke
  grestore
} bd
/QT {
/Y22 exch store
/X22 exch store
/Y21 exch store
/X21 exch store
currentpoint
/Y21 load 2 mul add 3 div exch
/X21 load 2 mul add 3 div exch
/X21 load 2 mul /X22 load add 3 div
/Y21 load 2 mul /Y22 load add 3 div
/X22 load /Y22 load curveto
} bd
/SSPD {
dup length /d exch dict def
{
/v exch def
/k exch def
currentpagedevice k known {
/cpdv currentpagedevice k get def
v cpdv ne {
/upd false def
/nullv v type /nulltype eq def
/nullcpdv cpdv type /nulltype eq def
nullv nullcpdv or
{
/upd true def
} {
/sametype v type cpdv type eq def
sametype {
v type /arraytype eq {
/vlen v length def
/cpdvlen cpdv length def
vlen cpdvlen eq {
0 1 vlen 1 sub {
/i exch def
/obj v i get def
/cpdobj cpdv i get def
obj cpdobj ne {
/upd true def
exit
} if
} for
} {
/upd true def
} ifelse
} {
v type /dicttype eq {
v {
/dv exch def
/dk exch def
/cpddv cpdv dk get def
dv cpddv ne {
/upd true def
exit
} if
} forall
} {
/upd true def
} ifelse
} ifelse
} if
} ifelse
upd true eq {
d k v put
} if
} if
} if
} forall
d length 0 gt {
d setpagedevice
} if
} bd
/RE { % /NewFontName [NewEncodingArray] /FontName RE -
  findfont dup length dict begin
  {
    1 index /FID ne
    {def} {pop pop} ifelse
  } forall
  /Encoding exch def
  /FontName 1 index def
  currentdict definefont pop
  end
} bind def
%%EndResource
%%BeginResource: procset (Apache XML Graphics EPS ProcSet) 1.0 0
%%Version: 1.0 0
%%Copyright: (Copyright 2002-2003 The Apache Software Foundation. License terms: http://www.apache.org/licenses/LICENSE-2.0)
/BeginEPSF { %def
/b4_Inc_state save def         % Save state for cleanup
/dict_count countdictstack def % Count objects on dict stack
/op_count count 1 sub def      % Count objects on operand stack
userdict begin                 % Push userdict on dict stack
/showpage { } def              % Redefine showpage, { } = null proc
0 setgray 0 setlinecap         % Prepare graphics state
1 setlinewidth 0 setlinejoin
10 setmiterlimit [ ] 0 setdash newpath
/languagelevel where           % If level not equal to 1 then
{pop languagelevel             % set strokeadjust and
1 ne                           % overprint to their defaults.
{false setstrokeadjust false setoverprint
} if
} if
} bd
/EndEPSF { %def
count op_count sub {pop} repeat            % Clean up stacks
countdictstack dict_count sub {end} repeat
b4_Inc_state restore
} bd
%%EndResource
%FOPBeginFontDict
%%IncludeResource: font Courier-Oblique
%%IncludeResource: font Courier-BoldOblique
%%IncludeResource: font Courier-Bold
%%IncludeResource: font ZapfDingbats
%%IncludeResource: font Symbol
%%IncludeResource: font Helvetica
%%IncludeResource: font Helvetica-Oblique
%%IncludeResource: font Helvetica-Bold
%%IncludeResource: font Helvetica-BoldOblique
%%IncludeResource: font Times-Roman
%%IncludeResource: font Times-Italic
%%IncludeResource: font Times-Bold
%%IncludeResource: font Times-BoldItalic
%%IncludeResource: font Courier
%FOPEndFontDict
%%BeginResource: encoding WinAnsiEncoding
/WinAnsiEncoding [
/.notdef /.notdef /.notdef /.notdef /.notdef
/.notdef /.notdef /.notdef /.notdef /.notdef
/.notdef /.notdef /.notdef /.notdef /.notdef
/.notdef /.notdef /.notdef /.notdef /.notdef
/.notdef /.notdef /.notdef /.notdef /.notdef
/.notdef /.notdef /.notdef /.notdef /.notdef
/.notdef /.notdef /space /exclam /quotedbl
/numbersign /dollar /percent /ampersand /quotesingle
/parenleft /parenright /asterisk /plus /comma
/hyphen /period /slash /zero /one
/two /three /four /five /six
/seven /eight /nine /colon /semicolon
/less /equal /greater /question /at
/A /B /C /D /E
/F /G /H /I /J
/K /L /M /N /O
/P /Q /R /S /T
/U /V /W /X /Y
/Z /bracketleft /backslash /bracketright /asciicircum
/underscore /quoteleft /a /b /c
/d /e /f /g /h
/i /j /k /l /m
/n /o /p /q /r
/s /t /u /v /w
/x /y /z /braceleft /bar
/braceright /asciitilde /bullet /Euro /bullet
/quotesinglbase /florin /quotedblbase /ellipsis /dagger
/daggerdbl /circumflex /perthousand /Scaron /guilsinglleft
/OE /bullet /Zcaron /bullet /bullet
/quoteleft /quoteright /quotedblleft /quotedblright /bullet
/endash /emdash /asciitilde /trademark /scaron
/guilsinglright /oe /bullet /zcaron /Ydieresis
/space /exclamdown /cent /sterling /currency
/yen /brokenbar /section /dieresis /copyright
/ordfeminine /guillemotleft /logicalnot /sfthyphen /registered
/macron /degree /plusminus /twosuperior /threesuperior
/acute /mu /paragraph /middot /cedilla
/onesuperior /ordmasculine /guillemotright /onequarter /onehalf
/threequarters /questiondown /Agrave /Aacute /Acircumflex
/Atilde /Adieresis /Aring /AE /Ccedilla
/Egrave /Eacute /Ecircumflex /Edieresis /Igrave
/Iacute /Icircumflex /Idieresis /Eth /Ntilde
/Ograve /Oacute /Ocircumflex /Otilde /Odieresis
/multiply /Oslash /Ugrave /Uacute /Ucircumflex
/Udieresis /Yacute /Thorn /germandbls /agrave
/aacute /acircumflex /atilde /adieresis /aring
/ae /ccedilla /egrave /eacute /ecircumflex
/edieresis /igrave /iacute /icircumflex /idieresis
/eth /ntilde /ograve /oacute /ocircumflex
/otilde /odieresis /divide /oslash /ugrave
/uacute /ucircumflex /udieresis /yacute /thorn
/ydieresis
] def
%%EndResource
%FOPBeginFontReencode
/Courier-Oblique findfont
dup length dict begin
  {1 index /FID ne {def} {pop pop} ifelse} forall
  /Encoding WinAnsiEncoding def
  currentdict
end
/Courier-Oblique exch definefont pop
/Courier-BoldOblique findfont
dup length dict begin
  {1 index /FID ne {def} {pop pop} ifelse} forall
  /Encoding WinAnsiEncoding def
  currentdict
end
/Courier-BoldOblique exch definefont pop
/Courier-Bold findfont
dup length dict begin
  {1 index /FID ne {def} {pop pop} ifelse} forall
  /Encoding WinAnsiEncoding def
  currentdict
end
/Courier-Bold exch definefont pop
/Helvetica findfont
dup length dict begin
  {1 index /FID ne {def} {pop pop} ifelse} forall
  /Encoding WinAnsiEncoding def
  currentdict
end
/Helvetica exch definefont pop
/Helvetica-Oblique findfont
dup length dict begin
  {1 index /FID ne {def} {pop pop} ifelse} forall
  /Encoding WinAnsiEncoding def
  currentdict
end
/Helvetica-Oblique exch definefont pop
/Helvetica-Bold findfont
dup length dict begin
  {1 index /FID ne {def} {pop pop} ifelse} forall
  /Encoding WinAnsiEncoding def
  currentdict
end
/Helvetica-Bold exch definefont pop
/Helvetica-BoldOblique findfont
dup length dict begin
  {1 index /FID ne {def} {pop pop} ifelse} forall
  /Encoding WinAnsiEncoding def
  currentdict
end
/Helvetica-BoldOblique exch definefont pop
/Times-Roman findfont
dup length dict begin
  {1 index /FID ne {def} {pop pop} ifelse} forall
  /Encoding WinAnsiEncoding def
  currentdict
end
/Times-Roman exch definefont pop
/Times-Italic findfont
dup length dict begin
  {1 index /FID ne {def} {pop pop} ifelse} forall
  /Encoding WinAnsiEncoding def
  currentdict
end
/Times-Italic exch definefont pop
/Times-Bold findfont
dup length dict begin
  {1 index /FID ne {def} {pop pop} ifelse} forall
  /Encoding WinAnsiEncoding def
  currentdict
end
/Times-Bold exch definefont pop
/Times-BoldItalic findfont
dup length dict begin
  {1 index /FID ne {def} {pop pop} ifelse} forall
  /Encoding WinAnsiEncoding def
  currentdict
end
/Times-BoldItalic exch definefont pop
/Courier findfont
dup length dict begin
  {1 index /FID ne {def} {pop pop} ifelse} forall
  /Encoding WinAnsiEncoding def
  currentdict
end
/Courier exch definefont pop
%FOPEndFontReencode
%%EndProlog
%%Page: 1 1
%%PageBoundingBox: 0 0 420 315
%%BeginPageSetup
[1 0 0 -1 0 315] CT
%%EndPageSetup
GS
[0.6 0 0 0.6 0 0] CT
1 GC
N
0 0 700 525 re
f
GR
GS
[0.6 0 0 0.6 0 0] CT
1 GC
N
0 0 700 525 re
f
GR
GS
[0.6 0 0 0.6 0 0] CT
1 GC
N
163 407 M
634 407 L
634 39 L
163 39 L
cp
f
GR
GS
[0.6 0 0 0.6 0 0] CT
2 setlinecap
1 LJ
3.333 LW
N
163 407 M
634 407 L
S
GR
GS
[0.6 0 0 0.6 0 0] CT
2 setlinecap
1 LJ
3.333 LW
N
163 39 M
634 39 L
S
GR
GS
[0.6 0 0 0.6 0 0] CT
2 setlinecap
1 LJ
3.333 LW
N
207.857 407 M
207.857 402.29 L
S
GR
GS
[0.6 0 0 0.6 0 0] CT
2 setlinecap
1 LJ
3.333 LW
N
252.714 407 M
252.714 402.29 L
S
GR
GS
[0.6 0 0 0.6 0 0] CT
2 setlinecap
1 LJ
3.333 LW
N
297.571 407 M
297.571 402.29 L
S
GR
GS
[0.6 0 0 0.6 0 0] CT
2 setlinecap
1 LJ
3.333 LW
N
342.429 407 M
342.429 402.29 L
S
GR
GS
[0.6 0 0 0.6 0 0] CT
2 setlinecap
1 LJ
3.333 LW
N
387.286 407 M
387.286 402.29 L
S
GR
GS
[0.6 0 0 0.6 0 0] CT
2 setlinecap
1 LJ
3.333 LW
N
432.143 407 M
432.143 402.29 L
S
GR
GS
[0.6 0 0 0.6 0 0] CT
2 setlinecap
1 LJ
3.333 LW
N
477 407 M
477 402.29 L
S
GR
GS
[0.6 0 0 0.6 0 0] CT
2 setlinecap
1 LJ
3.333 LW
N
521.857 407 M
521.857 402.29 L
S
GR
GS
[0.6 0 0 0.6 0 0] CT
2 setlinecap
1 LJ
3.333 LW
N
566.714 407 M
566.714 402.29 L
S
GR
GS
[0.6 0 0 0.6 0 0] CT
2 setlinecap
1 LJ
3.333 LW
N
611.571 407 M
611.571 402.29 L
S
GR
GS
[0.6 0 0 0.6 0 0] CT
2 setlinecap
1 LJ
3.333 LW
N
207.857 39 M
207.857 43.71 L
S
GR
GS
[0.6 0 0 0.6 0 0] CT
2 setlinecap
1 LJ
3.333 LW
N
252.714 39 M
252.714 43.71 L
S
GR
GS
[0.6 0 0 0.6 0 0] CT
2 setlinecap
1 LJ
3.333 LW
N
297.571 39 M
297.571 43.71 L
S
GR
GS
[0.6 0 0 0.6 0 0] CT
2 setlinecap
1 LJ
3.333 LW
N
342.429 39 M
342.429 43.71 L
S
GR
GS
[0.6 0 0 0.6 0 0] CT
2 setlinecap
1 LJ
3.333 LW
N
387.286 39 M
387.286 43.71 L
S
GR
GS
[0.6 0 0 0.6 0 0] CT
2 setlinecap
1 LJ
3.333 LW
N
432.143 39 M
432.143 43.71 L
S
GR
GS
[0.6 0 0 0.6 0 0] CT
2 setlinecap
1 LJ
3.333 LW
N
477 39 M
477 43.71 L
S
GR
GS
[0.6 0 0 0.6 0 0] CT
2 setlinecap
1 LJ
3.333 LW
N
521.857 39 M
521.857 43.71 L
S
GR
GS
[0.6 0 0 0.6 0 0] CT
2 setlinecap
1 LJ
3.333 LW
N
566.714 39 M
566.714 43.71 L
S
GR
GS
[0.6 0 0 0.6 0 0] CT
2 setlinecap
1 LJ
3.333 LW
N
611.571 39 M
611.571 43.71 L
S
GR
GS
[0.6 0 0 0.6 124.71429 251.00001] CT
/Helvetica 40 F
GS
[1 0 0 1 0 0] CT
-11.5 41 moveto 
1 -1 scale
(2) t 
GR
GR
GS
[0.6 0 0 0.6 151.62858 251.00001] CT
/Helvetica 40 F
GS
[1 0 0 1 0 0] CT
-11.5 41 moveto 
1 -1 scale
(4) t 
GR
GR
GS
[0.6 0 0 0.6 178.54286 251.00001] CT
/Helvetica 40 F
GS
[1 0 0 1 0 0] CT
-11.5 41 moveto 
1 -1 scale
(6) t 
GR
GR
GS
[0.6 0 0 0.6 205.45715 251.00001] CT
/Helvetica 40 F
GS
[1 0 0 1 0 0] CT
-11.5 41 moveto 
1 -1 scale
(8) t 
GR
GR
GS
[0.6 0 0 0.6 232.37142 251.00001] CT
/Helvetica 40 F
GS
[1 0 0 1 0 0] CT
-22.5 41 moveto 
1 -1 scale
(10) t 
GR
GR
GS
[0.6 0 0 0.6 259.28573 251.00001] CT
/Helvetica 40 F
GS
[1 0 0 1 0 0] CT
-22.5 41 moveto 
1 -1 scale
(12) t 
GR
GR
GS
[0.6 0 0 0.6 286.2 251.00001] CT
/Helvetica 40 F
GS
[1 0 0 1 0 0] CT
-22.5 41 moveto 
1 -1 scale
(14) t 
GR
GR
GS
[0.6 0 0 0.6 313.11431 251.00001] CT
/Helvetica 40 F
GS
[1 0 0 1 0 0] CT
-22.5 41 moveto 
1 -1 scale
(16) t 
GR
GR
GS
[0.6 0 0 0.6 340.02858 251.00001] CT
/Helvetica 40 F
GS
[1 0 0 1 0 0] CT
-22.5 41 moveto 
1 -1 scale
(18) t 
GR
GR
GS
[0.6 0 0 0.6 366.94285 251.00001] CT
/Helvetica 40 F
GS
[1 0 0 1 0 0] CT
-22.5 41 moveto 
1 -1 scale
(20) t 
GR
GR
GS
[0.6 0 0 0.6 239.10013 282] CT
/Helvetica 44 F
GS
[1 0 0 1 0 0] CT
-43 45 moveto 
1 -1 scale
(rank) t 
GR
GR
GS
[0.6 0 0 0.6 0 0] CT
2 setlinecap
1 LJ
3.333 LW
N
163 407 M
163 39 L
S
GR
GS
[0.6 0 0 0.6 0 0] CT
2 setlinecap
1 LJ
3.333 LW
N
634 407 M
634 39 L
S
GR
GS
[0.6 0 0 0.6 0 0] CT
2 setlinecap
1 LJ
3.333 LW
N
163 407 M
167.71 407 L
S
GR
GS
[0.6 0 0 0.6 0 0] CT
2 setlinecap
1 LJ
3.333 LW
N
163 333.4 M
167.71 333.4 L
S
GR
GS
[0.6 0 0 0.6 0 0] CT
2 setlinecap
1 LJ
3.333 LW
N
163 259.8 M
167.71 259.8 L
S
GR
GS
[0.6 0 0 0.6 0 0] CT
2 setlinecap
1 LJ
3.333 LW
N
163 186.2 M
167.71 186.2 L
S
GR
GS
[0.6 0 0 0.6 0 0] CT
2 setlinecap
1 LJ
3.333 LW
N
163 112.6 M
167.71 112.6 L
S
GR
GS
[0.6 0 0 0.6 0 0] CT
2 setlinecap
1 LJ
3.333 LW
N
163 39 M
167.71 39 L
S
GR
GS
[0.6 0 0 0.6 0 0] CT
2 setlinecap
1 LJ
3.333 LW
N
634 407 M
629.29 407 L
S
GR
GS
[0.6 0 0 0.6 0 0] CT
2 setlinecap
1 LJ
3.333 LW
N
634 333.4 M
629.29 333.4 L
S
GR
GS
[0.6 0 0 0.6 0 0] CT
2 setlinecap
1 LJ
3.333 LW
N
634 259.8 M
629.29 259.8 L
S
GR
GS
[0.6 0 0 0.6 0 0] CT
2 setlinecap
1 LJ
3.333 LW
N
634 186.2 M
629.29 186.2 L
S
GR
GS
[0.6 0 0 0.6 0 0] CT
2 setlinecap
1 LJ
3.333 LW
N
634 112.6 M
629.29 112.6 L
S
GR
GS
[0.6 0 0 0.6 0 0] CT
2 setlinecap
1 LJ
3.333 LW
N
634 39 M
629.29 39 L
S
GR
GS
[0.6 0 0 0.6 0 0] CT
2 setlinecap
1 LJ
3.333 LW
N
163 407 M
165.355 407 L
S
GR
GS
[0.6 0 0 0.6 0 0] CT
2 setlinecap
1 LJ
3.333 LW
N
163 395.922 M
165.355 395.922 L
S
GR
GS
[0.6 0 0 0.6 0 0] CT
2 setlinecap
1 LJ
3.333 LW
N
163 389.442 M
165.355 389.442 L
S
GR
GS
[0.6 0 0 0.6 0 0] CT
2 setlinecap
1 LJ
3.333 LW
N
163 384.844 M
165.355 384.844 L
S
GR
GS
[0.6 0 0 0.6 0 0] CT
2 setlinecap
1 LJ
3.333 LW
N
163 381.278 M
165.355 381.278 L
S
GR
GS
[0.6 0 0 0.6 0 0] CT
2 setlinecap
1 LJ
3.333 LW
N
163 378.364 M
165.355 378.364 L
S
GR
GS
[0.6 0 0 0.6 0 0] CT
2 setlinecap
1 LJ
3.333 LW
N
163 375.9 M
165.355 375.9 L
S
GR
GS
[0.6 0 0 0.6 0 0] CT
2 setlinecap
1 LJ
3.333 LW
N
163 373.766 M
165.355 373.766 L
S
GR
GS
[0.6 0 0 0.6 0 0] CT
2 setlinecap
1 LJ
3.333 LW
N
163 371.884 M
165.355 371.884 L
S
GR
GS
[0.6 0 0 0.6 0 0] CT
2 setlinecap
1 LJ
3.333 LW
N
163 370.2 M
165.355 370.2 L
S
GR
GS
[0.6 0 0 0.6 0 0] CT
2 setlinecap
1 LJ
3.333 LW
N
163 359.122 M
165.355 359.122 L
S
GR
GS
[0.6 0 0 0.6 0 0] CT
2 setlinecap
1 LJ
3.333 LW
N
163 352.642 M
165.355 352.642 L
S
GR
GS
[0.6 0 0 0.6 0 0] CT
2 setlinecap
1 LJ
3.333 LW
N
163 348.044 M
165.355 348.044 L
S
GR
GS
[0.6 0 0 0.6 0 0] CT
2 setlinecap
1 LJ
3.333 LW
N
163 344.478 M
165.355 344.478 L
S
GR
GS
[0.6 0 0 0.6 0 0] CT
2 setlinecap
1 LJ
3.333 LW
N
163 341.564 M
165.355 341.564 L
S
GR
GS
[0.6 0 0 0.6 0 0] CT
2 setlinecap
1 LJ
3.333 LW
N
163 339.1 M
165.355 339.1 L
S
GR
GS
[0.6 0 0 0.6 0 0] CT
2 setlinecap
1 LJ
3.333 LW
N
163 336.966 M
165.355 336.966 L
S
GR
GS
[0.6 0 0 0.6 0 0] CT
2 setlinecap
1 LJ
3.333 LW
N
163 335.084 M
165.355 335.084 L
S
GR
GS
[0.6 0 0 0.6 0 0] CT
2 setlinecap
1 LJ
3.333 LW
N
163 333.4 M
165.355 333.4 L
S
GR
GS
[0.6 0 0 0.6 0 0] CT
2 setlinecap
1 LJ
3.333 LW
N
163 322.322 M
165.355 322.322 L
S
GR
GS
[0.6 0 0 0.6 0 0] CT
2 setlinecap
1 LJ
3.333 LW
N
163 315.842 M
165.355 315.842 L
S
GR
GS
[0.6 0 0 0.6 0 0] CT
2 setlinecap
1 LJ
3.333 LW
N
163 311.244 M
165.355 311.244 L
S
GR
GS
[0.6 0 0 0.6 0 0] CT
2 setlinecap
1 LJ
3.333 LW
N
163 307.678 M
165.355 307.678 L
S
GR
GS
[0.6 0 0 0.6 0 0] CT
2 setlinecap
1 LJ
3.333 LW
N
163 304.764 M
165.355 304.764 L
S
GR
GS
[0.6 0 0 0.6 0 0] CT
2 setlinecap
1 LJ
3.333 LW
N
163 302.3 M
165.355 302.3 L
S
GR
GS
[0.6 0 0 0.6 0 0] CT
2 setlinecap
1 LJ
3.333 LW
N
163 300.166 M
165.355 300.166 L
S
GR
GS
[0.6 0 0 0.6 0 0] CT
2 setlinecap
1 LJ
3.333 LW
N
163 298.284 M
165.355 298.284 L
S
GR
GS
[0.6 0 0 0.6 0 0] CT
2 setlinecap
1 LJ
3.333 LW
N
163 296.6 M
165.355 296.6 L
S
GR
GS
[0.6 0 0 0.6 0 0] CT
2 setlinecap
1 LJ
3.333 LW
N
163 285.522 M
165.355 285.522 L
S
GR
GS
[0.6 0 0 0.6 0 0] CT
2 setlinecap
1 LJ
3.333 LW
N
163 279.042 M
165.355 279.042 L
S
GR
GS
[0.6 0 0 0.6 0 0] CT
2 setlinecap
1 LJ
3.333 LW
N
163 274.444 M
165.355 274.444 L
S
GR
GS
[0.6 0 0 0.6 0 0] CT
2 setlinecap
1 LJ
3.333 LW
N
163 270.878 M
165.355 270.878 L
S
GR
GS
[0.6 0 0 0.6 0 0] CT
2 setlinecap
1 LJ
3.333 LW
N
163 267.964 M
165.355 267.964 L
S
GR
GS
[0.6 0 0 0.6 0 0] CT
2 setlinecap
1 LJ
3.333 LW
N
163 265.5 M
165.355 265.5 L
S
GR
GS
[0.6 0 0 0.6 0 0] CT
2 setlinecap
1 LJ
3.333 LW
N
163 263.366 M
165.355 263.366 L
S
GR
GS
[0.6 0 0 0.6 0 0] CT
2 setlinecap
1 LJ
3.333 LW
N
163 261.484 M
165.355 261.484 L
S
GR
GS
[0.6 0 0 0.6 0 0] CT
2 setlinecap
1 LJ
3.333 LW
N
163 259.8 M
165.355 259.8 L
S
GR
GS
[0.6 0 0 0.6 0 0] CT
2 setlinecap
1 LJ
3.333 LW
N
163 248.722 M
165.355 248.722 L
S
GR
GS
[0.6 0 0 0.6 0 0] CT
2 setlinecap
1 LJ
3.333 LW
N
163 242.242 M
165.355 242.242 L
S
GR
GS
[0.6 0 0 0.6 0 0] CT
2 setlinecap
1 LJ
3.333 LW
N
163 237.644 M
165.355 237.644 L
S
GR
GS
[0.6 0 0 0.6 0 0] CT
2 setlinecap
1 LJ
3.333 LW
N
163 234.078 M
165.355 234.078 L
S
GR
GS
[0.6 0 0 0.6 0 0] CT
2 setlinecap
1 LJ
3.333 LW
N
163 231.164 M
165.355 231.164 L
S
GR
GS
[0.6 0 0 0.6 0 0] CT
2 setlinecap
1 LJ
3.333 LW
N
163 228.7 M
165.355 228.7 L
S
GR
GS
[0.6 0 0 0.6 0 0] CT
2 setlinecap
1 LJ
3.333 LW
N
163 226.566 M
165.355 226.566 L
S
GR
GS
[0.6 0 0 0.6 0 0] CT
2 setlinecap
1 LJ
3.333 LW
N
163 224.684 M
165.355 224.684 L
S
GR
GS
[0.6 0 0 0.6 0 0] CT
2 setlinecap
1 LJ
3.333 LW
N
163 223 M
165.355 223 L
S
GR
GS
[0.6 0 0 0.6 0 0] CT
2 setlinecap
1 LJ
3.333 LW
N
163 211.922 M
165.355 211.922 L
S
GR
GS
[0.6 0 0 0.6 0 0] CT
2 setlinecap
1 LJ
3.333 LW
N
163 205.442 M
165.355 205.442 L
S
GR
GS
[0.6 0 0 0.6 0 0] CT
2 setlinecap
1 LJ
3.333 LW
N
163 200.844 M
165.355 200.844 L
S
GR
GS
[0.6 0 0 0.6 0 0] CT
2 setlinecap
1 LJ
3.333 LW
N
163 197.278 M
165.355 197.278 L
S
GR
GS
[0.6 0 0 0.6 0 0] CT
2 setlinecap
1 LJ
3.333 LW
N
163 194.364 M
165.355 194.364 L
S
GR
GS
[0.6 0 0 0.6 0 0] CT
2 setlinecap
1 LJ
3.333 LW
N
163 191.9 M
165.355 191.9 L
S
GR
GS
[0.6 0 0 0.6 0 0] CT
2 setlinecap
1 LJ
3.333 LW
N
163 189.766 M
165.355 189.766 L
S
GR
GS
[0.6 0 0 0.6 0 0] CT
2 setlinecap
1 LJ
3.333 LW
N
163 187.884 M
165.355 187.884 L
S
GR
GS
[0.6 0 0 0.6 0 0] CT
2 setlinecap
1 LJ
3.333 LW
N
163 186.2 M
165.355 186.2 L
S
GR
GS
[0.6 0 0 0.6 0 0] CT
2 setlinecap
1 LJ
3.333 LW
N
163 186.2 M
165.355 186.2 L
S
GR
GS
[0.6 0 0 0.6 0 0] CT
2 setlinecap
1 LJ
3.333 LW
N
163 175.122 M
165.355 175.122 L
S
GR
GS
[0.6 0 0 0.6 0 0] CT
2 setlinecap
1 LJ
3.333 LW
N
163 168.642 M
165.355 168.642 L
S
GR
GS
[0.6 0 0 0.6 0 0] CT
2 setlinecap
1 LJ
3.333 LW
N
163 164.044 M
165.355 164.044 L
S
GR
GS
[0.6 0 0 0.6 0 0] CT
2 setlinecap
1 LJ
3.333 LW
N
163 160.478 M
165.355 160.478 L
S
GR
GS
[0.6 0 0 0.6 0 0] CT
2 setlinecap
1 LJ
3.333 LW
N
163 157.564 M
165.355 157.564 L
S
GR
GS
[0.6 0 0 0.6 0 0] CT
2 setlinecap
1 LJ
3.333 LW
N
163 155.1 M
165.355 155.1 L
S
GR
GS
[0.6 0 0 0.6 0 0] CT
2 setlinecap
1 LJ
3.333 LW
N
163 152.966 M
165.355 152.966 L
S
GR
GS
[0.6 0 0 0.6 0 0] CT
2 setlinecap
1 LJ
3.333 LW
N
163 151.084 M
165.355 151.084 L
S
GR
GS
[0.6 0 0 0.6 0 0] CT
2 setlinecap
1 LJ
3.333 LW
N
163 149.4 M
165.355 149.4 L
S
GR
GS
[0.6 0 0 0.6 0 0] CT
2 setlinecap
1 LJ
3.333 LW
N
163 138.322 M
165.355 138.322 L
S
GR
GS
[0.6 0 0 0.6 0 0] CT
2 setlinecap
1 LJ
3.333 LW
N
163 131.842 M
165.355 131.842 L
S
GR
GS
[0.6 0 0 0.6 0 0] CT
2 setlinecap
1 LJ
3.333 LW
N
163 127.244 M
165.355 127.244 L
S
GR
GS
[0.6 0 0 0.6 0 0] CT
2 setlinecap
1 LJ
3.333 LW
N
163 123.678 M
165.355 123.678 L
S
GR
GS
[0.6 0 0 0.6 0 0] CT
2 setlinecap
1 LJ
3.333 LW
N
163 120.764 M
165.355 120.764 L
S
GR
GS
[0.6 0 0 0.6 0 0] CT
2 setlinecap
1 LJ
3.333 LW
N
163 118.3 M
165.355 118.3 L
S
GR
GS
[0.6 0 0 0.6 0 0] CT
2 setlinecap
1 LJ
3.333 LW
N
163 116.166 M
165.355 116.166 L
S
GR
GS
[0.6 0 0 0.6 0 0] CT
2 setlinecap
1 LJ
3.333 LW
N
163 114.284 M
165.355 114.284 L
S
GR
GS
[0.6 0 0 0.6 0 0] CT
2 setlinecap
1 LJ
3.333 LW
N
163 112.6 M
165.355 112.6 L
S
GR
GS
[0.6 0 0 0.6 0 0] CT
2 setlinecap
1 LJ
3.333 LW
N
163 101.522 M
165.355 101.522 L
S
GR
GS
[0.6 0 0 0.6 0 0] CT
2 setlinecap
1 LJ
3.333 LW
N
163 95.042 M
165.355 95.042 L
S
GR
GS
[0.6 0 0 0.6 0 0] CT
2 setlinecap
1 LJ
3.333 LW
N
163 90.444 M
165.355 90.444 L
S
GR
GS
[0.6 0 0 0.6 0 0] CT
2 setlinecap
1 LJ
3.333 LW
N
163 86.878 M
165.355 86.878 L
S
GR
GS
[0.6 0 0 0.6 0 0] CT
2 setlinecap
1 LJ
3.333 LW
N
163 83.964 M
165.355 83.964 L
S
GR
GS
[0.6 0 0 0.6 0 0] CT
2 setlinecap
1 LJ
3.333 LW
N
163 81.5 M
165.355 81.5 L
S
GR
GS
[0.6 0 0 0.6 0 0] CT
2 setlinecap
1 LJ
3.333 LW
N
163 79.366 M
165.355 79.366 L
S
GR
GS
[0.6 0 0 0.6 0 0] CT
2 setlinecap
1 LJ
3.333 LW
N
163 77.484 M
165.355 77.484 L
S
GR
GS
[0.6 0 0 0.6 0 0] CT
2 setlinecap
1 LJ
3.333 LW
N
163 75.8 M
165.355 75.8 L
S
GR
GS
[0.6 0 0 0.6 0 0] CT
2 setlinecap
1 LJ
3.333 LW
N
163 64.722 M
165.355 64.722 L
S
GR
GS
[0.6 0 0 0.6 0 0] CT
2 setlinecap
1 LJ
3.333 LW
N
163 58.242 M
165.355 58.242 L
S
GR
GS
[0.6 0 0 0.6 0 0] CT
2 setlinecap
1 LJ
3.333 LW
N
163 53.644 M
165.355 53.644 L
S
GR
GS
[0.6 0 0 0.6 0 0] CT
2 setlinecap
1 LJ
3.333 LW
N
163 50.078 M
165.355 50.078 L
S
GR
GS
[0.6 0 0 0.6 0 0] CT
2 setlinecap
1 LJ
3.333 LW
N
163 47.164 M
165.355 47.164 L
S
GR
GS
[0.6 0 0 0.6 0 0] CT
2 setlinecap
1 LJ
3.333 LW
N
163 44.7 M
165.355 44.7 L
S
GR
GS
[0.6 0 0 0.6 0 0] CT
2 setlinecap
1 LJ
3.333 LW
N
163 42.566 M
165.355 42.566 L
S
GR
GS
[0.6 0 0 0.6 0 0] CT
2 setlinecap
1 LJ
3.333 LW
N
163 40.684 M
165.355 40.684 L
S
GR
GS
[0.6 0 0 0.6 0 0] CT
2 setlinecap
1 LJ
3.333 LW
N
163 39 M
165.355 39 L
S
GR
GS
[0.6 0 0 0.6 0 0] CT
2 setlinecap
1 LJ
3.333 LW
N
634 407 M
631.645 407 L
S
GR
GS
[0.6 0 0 0.6 0 0] CT
2 setlinecap
1 LJ
3.333 LW
N
634 395.922 M
631.645 395.922 L
S
GR
GS
[0.6 0 0 0.6 0 0] CT
2 setlinecap
1 LJ
3.333 LW
N
634 389.442 M
631.645 389.442 L
S
GR
GS
[0.6 0 0 0.6 0 0] CT
2 setlinecap
1 LJ
3.333 LW
N
634 384.844 M
631.645 384.844 L
S
GR
GS
[0.6 0 0 0.6 0 0] CT
2 setlinecap
1 LJ
3.333 LW
N
634 381.278 M
631.645 381.278 L
S
GR
GS
[0.6 0 0 0.6 0 0] CT
2 setlinecap
1 LJ
3.333 LW
N
634 378.364 M
631.645 378.364 L
S
GR
GS
[0.6 0 0 0.6 0 0] CT
2 setlinecap
1 LJ
3.333 LW
N
634 375.9 M
631.645 375.9 L
S
GR
GS
[0.6 0 0 0.6 0 0] CT
2 setlinecap
1 LJ
3.333 LW
N
634 373.766 M
631.645 373.766 L
S
GR
GS
[0.6 0 0 0.6 0 0] CT
2 setlinecap
1 LJ
3.333 LW
N
634 371.884 M
631.645 371.884 L
S
GR
GS
[0.6 0 0 0.6 0 0] CT
2 setlinecap
1 LJ
3.333 LW
N
634 370.2 M
631.645 370.2 L
S
GR
GS
[0.6 0 0 0.6 0 0] CT
2 setlinecap
1 LJ
3.333 LW
N
634 359.122 M
631.645 359.122 L
S
GR
GS
[0.6 0 0 0.6 0 0] CT
2 setlinecap
1 LJ
3.333 LW
N
634 352.642 M
631.645 352.642 L
S
GR
GS
[0.6 0 0 0.6 0 0] CT
2 setlinecap
1 LJ
3.333 LW
N
634 348.044 M
631.645 348.044 L
S
GR
GS
[0.6 0 0 0.6 0 0] CT
2 setlinecap
1 LJ
3.333 LW
N
634 344.478 M
631.645 344.478 L
S
GR
GS
[0.6 0 0 0.6 0 0] CT
2 setlinecap
1 LJ
3.333 LW
N
634 341.564 M
631.645 341.564 L
S
GR
GS
[0.6 0 0 0.6 0 0] CT
2 setlinecap
1 LJ
3.333 LW
N
634 339.1 M
631.645 339.1 L
S
GR
GS
[0.6 0 0 0.6 0 0] CT
2 setlinecap
1 LJ
3.333 LW
N
634 336.966 M
631.645 336.966 L
S
GR
GS
[0.6 0 0 0.6 0 0] CT
2 setlinecap
1 LJ
3.333 LW
N
634 335.084 M
631.645 335.084 L
S
GR
GS
[0.6 0 0 0.6 0 0] CT
2 setlinecap
1 LJ
3.333 LW
N
634 333.4 M
631.645 333.4 L
S
GR
GS
[0.6 0 0 0.6 0 0] CT
2 setlinecap
1 LJ
3.333 LW
N
634 322.322 M
631.645 322.322 L
S
GR
GS
[0.6 0 0 0.6 0 0] CT
2 setlinecap
1 LJ
3.333 LW
N
634 315.842 M
631.645 315.842 L
S
GR
GS
[0.6 0 0 0.6 0 0] CT
2 setlinecap
1 LJ
3.333 LW
N
634 311.244 M
631.645 311.244 L
S
GR
GS
[0.6 0 0 0.6 0 0] CT
2 setlinecap
1 LJ
3.333 LW
N
634 307.678 M
631.645 307.678 L
S
GR
GS
[0.6 0 0 0.6 0 0] CT
2 setlinecap
1 LJ
3.333 LW
N
634 304.764 M
631.645 304.764 L
S
GR
GS
[0.6 0 0 0.6 0 0] CT
2 setlinecap
1 LJ
3.333 LW
N
634 302.3 M
631.645 302.3 L
S
GR
GS
[0.6 0 0 0.6 0 0] CT
2 setlinecap
1 LJ
3.333 LW
N
634 300.166 M
631.645 300.166 L
S
GR
GS
[0.6 0 0 0.6 0 0] CT
2 setlinecap
1 LJ
3.333 LW
N
634 298.284 M
631.645 298.284 L
S
GR
GS
[0.6 0 0 0.6 0 0] CT
2 setlinecap
1 LJ
3.333 LW
N
634 296.6 M
631.645 296.6 L
S
GR
GS
[0.6 0 0 0.6 0 0] CT
2 setlinecap
1 LJ
3.333 LW
N
634 285.522 M
631.645 285.522 L
S
GR
GS
[0.6 0 0 0.6 0 0] CT
2 setlinecap
1 LJ
3.333 LW
N
634 279.042 M
631.645 279.042 L
S
GR
GS
[0.6 0 0 0.6 0 0] CT
2 setlinecap
1 LJ
3.333 LW
N
634 274.444 M
631.645 274.444 L
S
GR
GS
[0.6 0 0 0.6 0 0] CT
2 setlinecap
1 LJ
3.333 LW
N
634 270.878 M
631.645 270.878 L
S
GR
GS
[0.6 0 0 0.6 0 0] CT
2 setlinecap
1 LJ
3.333 LW
N
634 267.964 M
631.645 267.964 L
S
GR
GS
[0.6 0 0 0.6 0 0] CT
2 setlinecap
1 LJ
3.333 LW
N
634 265.5 M
631.645 265.5 L
S
GR
GS
[0.6 0 0 0.6 0 0] CT
2 setlinecap
1 LJ
3.333 LW
N
634 263.366 M
631.645 263.366 L
S
GR
GS
[0.6 0 0 0.6 0 0] CT
2 setlinecap
1 LJ
3.333 LW
N
634 261.484 M
631.645 261.484 L
S
GR
GS
[0.6 0 0 0.6 0 0] CT
2 setlinecap
1 LJ
3.333 LW
N
634 259.8 M
631.645 259.8 L
S
GR
GS
[0.6 0 0 0.6 0 0] CT
2 setlinecap
1 LJ
3.333 LW
N
634 248.722 M
631.645 248.722 L
S
GR
GS
[0.6 0 0 0.6 0 0] CT
2 setlinecap
1 LJ
3.333 LW
N
634 242.242 M
631.645 242.242 L
S
GR
GS
[0.6 0 0 0.6 0 0] CT
2 setlinecap
1 LJ
3.333 LW
N
634 237.644 M
631.645 237.644 L
S
GR
GS
[0.6 0 0 0.6 0 0] CT
2 setlinecap
1 LJ
3.333 LW
N
634 234.078 M
631.645 234.078 L
S
GR
GS
[0.6 0 0 0.6 0 0] CT
2 setlinecap
1 LJ
3.333 LW
N
634 231.164 M
631.645 231.164 L
S
GR
GS
[0.6 0 0 0.6 0 0] CT
2 setlinecap
1 LJ
3.333 LW
N
634 228.7 M
631.645 228.7 L
S
GR
GS
[0.6 0 0 0.6 0 0] CT
2 setlinecap
1 LJ
3.333 LW
N
634 226.566 M
631.645 226.566 L
S
GR
GS
[0.6 0 0 0.6 0 0] CT
2 setlinecap
1 LJ
3.333 LW
N
634 224.684 M
631.645 224.684 L
S
GR
GS
[0.6 0 0 0.6 0 0] CT
2 setlinecap
1 LJ
3.333 LW
N
634 223 M
631.645 223 L
S
GR
GS
[0.6 0 0 0.6 0 0] CT
2 setlinecap
1 LJ
3.333 LW
N
634 211.922 M
631.645 211.922 L
S
GR
GS
[0.6 0 0 0.6 0 0] CT
2 setlinecap
1 LJ
3.333 LW
N
634 205.442 M
631.645 205.442 L
S
GR
GS
[0.6 0 0 0.6 0 0] CT
2 setlinecap
1 LJ
3.333 LW
N
634 200.844 M
631.645 200.844 L
S
GR
GS
[0.6 0 0 0.6 0 0] CT
2 setlinecap
1 LJ
3.333 LW
N
634 197.278 M
631.645 197.278 L
S
GR
GS
[0.6 0 0 0.6 0 0] CT
2 setlinecap
1 LJ
3.333 LW
N
634 194.364 M
631.645 194.364 L
S
GR
GS
[0.6 0 0 0.6 0 0] CT
2 setlinecap
1 LJ
3.333 LW
N
634 191.9 M
631.645 191.9 L
S
GR
GS
[0.6 0 0 0.6 0 0] CT
2 setlinecap
1 LJ
3.333 LW
N
634 189.766 M
631.645 189.766 L
S
GR
GS
[0.6 0 0 0.6 0 0] CT
2 setlinecap
1 LJ
3.333 LW
N
634 187.884 M
631.645 187.884 L
S
GR
GS
[0.6 0 0 0.6 0 0] CT
2 setlinecap
1 LJ
3.333 LW
N
634 186.2 M
631.645 186.2 L
S
GR
GS
[0.6 0 0 0.6 0 0] CT
2 setlinecap
1 LJ
3.333 LW
N
634 186.2 M
631.645 186.2 L
S
GR
GS
[0.6 0 0 0.6 0 0] CT
2 setlinecap
1 LJ
3.333 LW
N
634 175.122 M
631.645 175.122 L
S
GR
GS
[0.6 0 0 0.6 0 0] CT
2 setlinecap
1 LJ
3.333 LW
N
634 168.642 M
631.645 168.642 L
S
GR
GS
[0.6 0 0 0.6 0 0] CT
2 setlinecap
1 LJ
3.333 LW
N
634 164.044 M
631.645 164.044 L
S
GR
GS
[0.6 0 0 0.6 0 0] CT
2 setlinecap
1 LJ
3.333 LW
N
634 160.478 M
631.645 160.478 L
S
GR
GS
[0.6 0 0 0.6 0 0] CT
2 setlinecap
1 LJ
3.333 LW
N
634 157.564 M
631.645 157.564 L
S
GR
GS
[0.6 0 0 0.6 0 0] CT
2 setlinecap
1 LJ
3.333 LW
N
634 155.1 M
631.645 155.1 L
S
GR
GS
[0.6 0 0 0.6 0 0] CT
2 setlinecap
1 LJ
3.333 LW
N
634 152.966 M
631.645 152.966 L
S
GR
GS
[0.6 0 0 0.6 0 0] CT
2 setlinecap
1 LJ
3.333 LW
N
634 151.084 M
631.645 151.084 L
S
GR
GS
[0.6 0 0 0.6 0 0] CT
2 setlinecap
1 LJ
3.333 LW
N
634 149.4 M
631.645 149.4 L
S
GR
GS
[0.6 0 0 0.6 0 0] CT
2 setlinecap
1 LJ
3.333 LW
N
634 138.322 M
631.645 138.322 L
S
GR
GS
[0.6 0 0 0.6 0 0] CT
2 setlinecap
1 LJ
3.333 LW
N
634 131.842 M
631.645 131.842 L
S
GR
GS
[0.6 0 0 0.6 0 0] CT
2 setlinecap
1 LJ
3.333 LW
N
634 127.244 M
631.645 127.244 L
S
GR
GS
[0.6 0 0 0.6 0 0] CT
2 setlinecap
1 LJ
3.333 LW
N
634 123.678 M
631.645 123.678 L
S
GR
GS
[0.6 0 0 0.6 0 0] CT
2 setlinecap
1 LJ
3.333 LW
N
634 120.764 M
631.645 120.764 L
S
GR
GS
[0.6 0 0 0.6 0 0] CT
2 setlinecap
1 LJ
3.333 LW
N
634 118.3 M
631.645 118.3 L
S
GR
GS
[0.6 0 0 0.6 0 0] CT
2 setlinecap
1 LJ
3.333 LW
N
634 116.166 M
631.645 116.166 L
S
GR
GS
[0.6 0 0 0.6 0 0] CT
2 setlinecap
1 LJ
3.333 LW
N
634 114.284 M
631.645 114.284 L
S
GR
GS
[0.6 0 0 0.6 0 0] CT
2 setlinecap
1 LJ
3.333 LW
N
634 112.6 M
631.645 112.6 L
S
GR
GS
[0.6 0 0 0.6 0 0] CT
2 setlinecap
1 LJ
3.333 LW
N
634 101.522 M
631.645 101.522 L
S
GR
GS
[0.6 0 0 0.6 0 0] CT
2 setlinecap
1 LJ
3.333 LW
N
634 95.042 M
631.645 95.042 L
S
GR
GS
[0.6 0 0 0.6 0 0] CT
2 setlinecap
1 LJ
3.333 LW
N
634 90.444 M
631.645 90.444 L
S
GR
GS
[0.6 0 0 0.6 0 0] CT
2 setlinecap
1 LJ
3.333 LW
N
634 86.878 M
631.645 86.878 L
S
GR
GS
[0.6 0 0 0.6 0 0] CT
2 setlinecap
1 LJ
3.333 LW
N
634 83.964 M
631.645 83.964 L
S
GR
GS
[0.6 0 0 0.6 0 0] CT
2 setlinecap
1 LJ
3.333 LW
N
634 81.5 M
631.645 81.5 L
S
GR
GS
[0.6 0 0 0.6 0 0] CT
2 setlinecap
1 LJ
3.333 LW
N
634 79.366 M
631.645 79.366 L
S
GR
GS
[0.6 0 0 0.6 0 0] CT
2 setlinecap
1 LJ
3.333 LW
N
634 77.484 M
631.645 77.484 L
S
GR
GS
[0.6 0 0 0.6 0 0] CT
2 setlinecap
1 LJ
3.333 LW
N
634 75.8 M
631.645 75.8 L
S
GR
GS
[0.6 0 0 0.6 0 0] CT
2 setlinecap
1 LJ
3.333 LW
N
634 64.722 M
631.645 64.722 L
S
GR
GS
[0.6 0 0 0.6 0 0] CT
2 setlinecap
1 LJ
3.333 LW
N
634 58.242 M
631.645 58.242 L
S
GR
GS
[0.6 0 0 0.6 0 0] CT
2 setlinecap
1 LJ
3.333 LW
N
634 53.644 M
631.645 53.644 L
S
GR
GS
[0.6 0 0 0.6 0 0] CT
2 setlinecap
1 LJ
3.333 LW
N
634 50.078 M
631.645 50.078 L
S
GR
GS
[0.6 0 0 0.6 0 0] CT
2 setlinecap
1 LJ
3.333 LW
N
634 47.164 M
631.645 47.164 L
S
GR
GS
[0.6 0 0 0.6 0 0] CT
2 setlinecap
1 LJ
3.333 LW
N
634 44.7 M
631.645 44.7 L
S
GR
GS
[0.6 0 0 0.6 0 0] CT
2 setlinecap
1 LJ
3.333 LW
N
634 42.566 M
631.645 42.566 L
S
GR
GS
[0.6 0 0 0.6 0 0] CT
2 setlinecap
1 LJ
3.333 LW
N
634 40.684 M
631.645 40.684 L
S
GR
GS
[0.6 0 0 0.6 0 0] CT
2 setlinecap
1 LJ
3.333 LW
N
634 39 M
631.645 39 L
S
GR
GS
[0.6 0 0 0.6 36 257.4] CT
/Helvetica 40 F
GS
[1 0 0 1 0 0] CT
0 0 moveto 
1 -1 scale
(10) t 
GR
GR
GS
[0.6 0 0 0.6 63 246] CT
/Helvetica 32 F
GS
[1 0 0 1 0 0] CT
0 0 moveto 
1 -1 scale
(-10) t 
GR
GR
GS
[0.6 0 0 0.6 46.8 213] CT
/Helvetica 40 F
GS
[1 0 0 1 0 0] CT
0 0 moveto 
1 -1 scale
(10) t 
GR
GR
GS
[0.6 0 0 0.6 73.8 201.6] CT
/Helvetica 32 F
GS
[1 0 0 1 0 0] CT
0 0 moveto 
1 -1 scale
(-8) t 
GR
GR
GS
[0.6 0 0 0.6 46.8 169.2] CT
/Helvetica 40 F
GS
[1 0 0 1 0 0] CT
0 0 moveto 
1 -1 scale
(10) t 
GR
GR
GS
[0.6 0 0 0.6 73.8 157.8] CT
/Helvetica 32 F
GS
[1 0 0 1 0 0] CT
0 0 moveto 
1 -1 scale
(-6) t 
GR
GR
GS
[0.6 0 0 0.6 46.8 124.8] CT
/Helvetica 40 F
GS
[1 0 0 1 0 0] CT
0 0 moveto 
1 -1 scale
(10) t 
GR
GR
GS
[0.6 0 0 0.6 73.8 113.4] CT
/Helvetica 32 F
GS
[1 0 0 1 0 0] CT
0 0 moveto 
1 -1 scale
(-4) t 
GR
GR
GS
[0.6 0 0 0.6 46.8 81] CT
/Helvetica 40 F
GS
[1 0 0 1 0 0] CT
0 0 moveto 
1 -1 scale
(10) t 
GR
GR
GS
[0.6 0 0 0.6 73.8 69.6] CT
/Helvetica 32 F
GS
[1 0 0 1 0 0] CT
0 0 moveto 
1 -1 scale
(-2) t 
GR
GR
GS
[0.6 0 0 0.6 53.4 36.6] CT
/Helvetica 40 F
GS
[1 0 0 1 0 0] CT
0 0 moveto 
1 -1 scale
(10) t 
GR
GR
GS
[0.6 0 0 0.6 80.4 25.2] CT
/Helvetica 32 F
GS
[1 0 0 1 0 0] CT
0 0 moveto 
1 -1 scale
(0) t 
GR
GR
GS
[0 -0.6 0.6 0 32.8 133.79989] CT
/Helvetica 44 F
GS
[1 0 0 1 0 0] CT
-46.5 -10 moveto 
1 -1 scale
(error) t 
GR
GR
GS
[0.6 0 0 0.6 0 0] CT
1 LJ
3.333 LW
N
185.429 85.023 M
207.857 68.485 L
230.286 67.192 L
252.714 56.906 L
275.143 59.906 L
297.571 58.769 L
320 57.468 L
342.429 55.53 L
364.857 55.778 L
387.286 56.523 L
409.714 56.528 L
432.143 56.218 L
454.571 56.224 L
477 56.137 L
499.429 53.206 L
521.857 55.203 L
544.286 55.914 L
566.714 55.767 L
589.143 55.855 L
611.571 55.742 L
S
GR
GS
[0.6 0 0 0.6 111.25714 51.01361] CT
10.0 ML
3.333 LW
N
-5.893 -5.893 M
5.893 5.893 L
-5.893 5.893 M
5.893 -5.893 L
S
GR
GS
[0.6 0 0 0.6 124.71429 41.09077] CT
10.0 ML
3.333 LW
N
-5.893 -5.893 M
5.893 5.893 L
-5.893 5.893 M
5.893 -5.893 L
S
GR
GS
[0.6 0 0 0.6 138.17143 40.31502] CT
10.0 ML
3.333 LW
N
-5.893 -5.893 M
5.893 5.893 L
-5.893 5.893 M
5.893 -5.893 L
S
GR
GS
[0.6 0 0 0.6 151.62858 34.14361] CT
10.0 ML
3.333 LW
N
-5.893 -5.893 M
5.893 5.893 L
-5.893 5.893 M
5.893 -5.893 L
S
GR
GS
[0.6 0 0 0.6 165.08571 35.94338] CT
10.0 ML
3.333 LW
N
-5.893 -5.893 M
5.893 5.893 L
-5.893 5.893 M
5.893 -5.893 L
S
GR
GS
[0.6 0 0 0.6 178.54286 35.26161] CT
10.0 ML
3.333 LW
N
-5.893 -5.893 M
5.893 5.893 L
-5.893 5.893 M
5.893 -5.893 L
S
GR
GS
[0.6 0 0 0.6 192 34.48063] CT
10.0 ML
3.333 LW
N
-5.893 -5.893 M
5.893 5.893 L
-5.893 5.893 M
5.893 -5.893 L
S
GR
GS
[0.6 0 0 0.6 205.45715 33.31805] CT
10.0 ML
3.333 LW
N
-5.893 -5.893 M
5.893 5.893 L
-5.893 5.893 M
5.893 -5.893 L
S
GR
GS
[0.6 0 0 0.6 218.91429 33.46691] CT
10.0 ML
3.333 LW
N
-5.893 -5.893 M
5.893 5.893 L
-5.893 5.893 M
5.893 -5.893 L
S
GR
GS
[0.6 0 0 0.6 232.37142 33.91386] CT
10.0 ML
3.333 LW
N
-5.893 -5.893 M
5.893 5.893 L
-5.893 5.893 M
5.893 -5.893 L
S
GR
GS
[0.6 0 0 0.6 245.82858 33.91679] CT
10.0 ML
3.333 LW
N
-5.893 -5.893 M
5.893 5.893 L
-5.893 5.893 M
5.893 -5.893 L
S
GR
GS
[0.6 0 0 0.6 259.28573 33.73101] CT
10.0 ML
3.333 LW
N
-5.893 -5.893 M
5.893 5.893 L
-5.893 5.893 M
5.893 -5.893 L
S
GR
GS
[0.6 0 0 0.6 272.74286 33.73467] CT
10.0 ML
3.333 LW
N
-5.893 -5.893 M
5.893 5.893 L
-5.893 5.893 M
5.893 -5.893 L
S
GR
GS
[0.6 0 0 0.6 286.2 33.68196] CT
10.0 ML
3.333 LW
N
-5.893 -5.893 M
5.893 5.893 L
-5.893 5.893 M
5.893 -5.893 L
S
GR
GS
[0.6 0 0 0.6 299.65715 31.92369] CT
10.0 ML
3.333 LW
N
-5.893 -5.893 M
5.893 5.893 L
-5.893 5.893 M
5.893 -5.893 L
S
GR
GS
[0.6 0 0 0.6 313.11431 33.12194] CT
10.0 ML
3.333 LW
N
-5.893 -5.893 M
5.893 5.893 L
-5.893 5.893 M
5.893 -5.893 L
S
GR
GS
[0.6 0 0 0.6 326.57142 33.5485] CT
10.0 ML
3.333 LW
N
-5.893 -5.893 M
5.893 5.893 L
-5.893 5.893 M
5.893 -5.893 L
S
GR
GS
[0.6 0 0 0.6 340.02858 33.46008] CT
10.0 ML
3.333 LW
N
-5.893 -5.893 M
5.893 5.893 L
-5.893 5.893 M
5.893 -5.893 L
S
GR
GS
[0.6 0 0 0.6 353.48573 33.51273] CT
10.0 ML
3.333 LW
N
-5.893 -5.893 M
5.893 5.893 L
-5.893 5.893 M
5.893 -5.893 L
S
GR
GS
[0.6 0 0 0.6 366.94285 33.44537] CT
10.0 ML
3.333 LW
N
-5.893 -5.893 M
5.893 5.893 L
-5.893 5.893 M
5.893 -5.893 L
S
GR
%%Trailer
%%Pages: 1
%%EOF
